{"count": 103, "description": "Documents published on or after 05/19/2025", "total_pages": 21, "next_page_url": "https://www.federalregister.gov/api/v1/documents?conditions%5Bpublication_date%5D%5Bgte%5D=2025-05-19&format=json&order=newest&page=2&per_page=5", "results": [{"title": "Sunshine Act Meetings", "type": "Notice", "abstract": null, "document_number": "2025-09060", "html_url": "https://www.federalregister.gov/documents/2025/05/19/2025-09060/sunshine-act-meetings", "pdf_url": "https://www.govinfo.gov/content/pkg/FR-2025-05-19/pdf/2025-09060.pdf", "public_inspection_pdf_url": null, "publication_date": "2025-05-19", "agencies": [{"raw_name": "SECURITIES AND EXCHANGE COMMISSION", "name": "Securities and Exchange Commission", "id": 466, "url": "https://www.federalregister.gov/agencies/securities-and-exchange-commission", "json_url": "https://www.federalregister.gov/api/v1/agencies/466", "parent_id": null, "slug": "securities-and-exchange-commission"}], "excerpts": null}, {"title": "Alternatives to the Use of Cohen's d; Request for Comment", "type": "Notice", "abstract": "The U.S. Department of Commerce (Commerce) seeks information and public comment on how the administering authority can meet the statutory requirement outlined in section 777A(d)(1)(B)(i) of the Tariff Act of 1930, as amended (the Act), to identify if \"there is a pattern of export prices (or constructed export prices) for comparable merchandise that differ significantly among purchasers, regions, or periods of time.\" The U.S. Court of Appeals for the Federal Circuit (Federal Circuit) recently held that it is unreasonable to use the current Cohen's d test when the Cohen's d test is applied to data that do not satisfy the statistical assumptions of normal distribution, equal variances, and sufficiently numerous data. Commerce seeks information and public comment regarding alternatives to the use of the Cohen's d test to define when prices differ significantly among purchasers, regions, and time periods, pursuant to section 777A(d)(1)(B)(i) of the Act.", "document_number": "2025-08914", "html_url": "https://www.federalregister.gov/documents/2025/05/19/2025-08914/alternatives-to-the-use-of-cohens-d-request-for-comment", "pdf_url": "https://www.govinfo.gov/content/pkg/FR-2025-05-19/pdf/2025-08914.pdf", "public_inspection_pdf_url": null, "publication_date": "2025-05-19", "agencies": [{"raw_name": "DEPARTMENT OF COMMERCE", "name": "Commerce Department", "id": 54, "url": "https://www.federalregister.gov/agencies/commerce-department", "json_url": "https://www.federalregister.gov/api/v1/agencies/54", "parent_id": null, "slug": "commerce-department"}, {"raw_name": "International Trade Administration", "name": "International Trade Administration", "id": 261, "url": "https://www.federalregister.gov/agencies/international-trade-administration", "json_url": "https://www.federalregister.gov/api/v1/agencies/261", "parent_id": 54, "slug": "international-trade-administration"}], "excerpts": "The U.S. Department of Commerce (Commerce) seeks information and public comment on how the administering authority can meet the statutory requirement outlined in section 777A(d)(1)(B)(i) of the Tariff Act of 1930, as amended (the Act), to identify if..."}, {"title": "Lincoln Bain Capital Total Credit Fund, Lincoln Royalties Income Fund, LP, and Lincoln Financial Investments Corporation", "type": "Notice", "abstract": null, "document_number": "2025-08910", "html_url": "https://www.federalregister.gov/documents/2025/05/19/2025-08910/lincoln-bain-capital-total-credit-fund-lincoln-royalties-income-fund-lp-and-lincoln-financial", "pdf_url": "https://www.govinfo.gov/content/pkg/FR-2025-05-19/pdf/2025-08910.pdf", "public_inspection_pdf_url": null, "publication_date": "2025-05-19", "agencies": [{"raw_name": "SECURITIES AND EXCHANGE COMMISSION", "name": "Securities and Exchange Commission", "id": 466, "url": "https://www.federalregister.gov/agencies/securities-and-exchange-commission", "json_url": "https://www.federalregister.gov/api/v1/agencies/466", "parent_id": null, "slug": "securities-and-exchange-commission"}], "excerpts": null}, {"title": "Proposed Collection; Comment Request; Extension: Rule 607", "type": "Notice", "abstract": null, "document_number": "2025-08909", "html_url": "https://www.federalregister.gov/documents/2025/05/19/2025-08909/proposed-collection-comment-request-extension-rule-607", "pdf_url": "https://www.govinfo.gov/content/pkg/FR-2025-05-19/pdf/2025-08909.pdf", "public_inspection_pdf_url": null, "publication_date": "2025-05-19", "agencies": [{"raw_name": "SECURITIES AND EXCHANGE COMMISSION", "name": "Securities and Exchange Commission", "id": 466, "url": "https://www.federalregister.gov/agencies/securities-and-exchange-commission", "json_url": "https://www.federalregister.gov/api/v1/agencies/466", "parent_id": null, "slug": "securities-and-exchange-commission"}], "excerpts": null}, {"title": "Allocations for Community Development Block Grant Disaster Recovery and Implementation of the CDBG-DR Consolidated Waivers and Alternative Requirements Notice (PLUS-UP)", "type": "Notice", "abstract": "On November 27, 2023, HUD announced approximately $142 million in Community Development Block Grant Disaster Recovery (CDBG-DR) funds appropriated by the Disaster Relief Supplemental Appropriations Act, 2023 for major disasters occurring in 2022 and January of 2023 in a Federal Register notice. This Allocation Announcement Notice announces an additional $102,414,000 in CDBG-DR funds appropriated by the Disaster Relief Supplemental Appropriations Act, 2025 for major disasters occurring in January 2023 only. This Allocation Announcement Notice identifies grant requirements for these funds.", "document_number": "2025-08908", "html_url": "https://www.federalregister.gov/documents/2025/05/19/2025-08908/allocations-for-community-development-block-grant-disaster-recovery-and-implementation-of-the", "pdf_url": "https://www.govinfo.gov/content/pkg/FR-2025-05-19/pdf/2025-08908.pdf", "public_inspection_pdf_url": null, "publication_date": "2025-05-19", "agencies": [{"raw_name": "DEPARTMENT OF HOUSING AND URBAN DEVELOPMENT", "name": "Housing and Urban Development Department", "id": 228, "url": "https://www.federalregister.gov/agencies/housing-and-urban-development-department", "json_url": "https://www.federalregister.gov/api/v1/agencies/228", "parent_id": null, "slug": "housing-and-urban-development-department"}], "excerpts": "On November 27, 2023, HUD announced approximately $142 million in Community Development Block Grant Disaster Recovery (CDBG-DR) funds appropriated by the Disaster Relief Supplemental Appropriations Act, 2023 for major disasters occurring in 2022 and..."}]}